{"results":[{"popularity":232.077,"vote_count":1029,"video":false,"poster_path":"\/AuGiPiGMYMkSosOJ3BQjDEAiwtO.jpg","id":530915,"adult":false,"backdrop_path":"\/ds9GKAMhxv5AbprmZ2xCpK8FiEG.jpg","original_language":"en","original_title":"1917","genre_ids":[28,18,36,10752],"title":"1917","vote_average":8.1,"overview":"At the height of the First World War, two young British soldiers, Schofield and Blake are given a seemingly impossible mission. In a race against time, they must cross enemy territory and deliver a message that will stop a deadly attack on hundreds of soldiers—Blake's own brother among them.","release_date":"2019-12-10"},{"popularity":113.7,"vote_count":2817,"video":false,"poster_path":"\/7IiTTgloJzvGI1TAYymCfbfl3vT.jpg","id":496243,"adult":false,"backdrop_path":"\/TU9NIjwzjoKPwQHoHshkFcQUCG.jpg","original_language":"ko","original_title":"기생충","genre_ids":[35,18,53],"title":"Parasite","vote_average":8.6,"overview":"All unemployed, Ki-taek's family takes peculiar interest in the wealthy and glamorous Parks for their livelihood until they get entangled in an unexpected incident.","release_date":"2019-05-30"},{"popularity":102.447,"vote_count":4,"video":false,"poster_path":"\/wxWLj73hr9LCluXgdV7o8zUOiDc.jpg","id":503917,"adult":false,"backdrop_path":"\/jUFb7QQaX4o9JU6ekqTmntUSrJ9.jpg","original_language":"cn","original_title":"肥龍過江","genre_ids":[28,35],"title":"Enter The Fat Dragon","vote_average":2.1,"overview":"A Remake Of ENTER THE FAT DRAGON - Directed By KENJI TANIGAKI - Starring DONNIE YEN","release_date":"2020-01-23"},{"popularity":82.194,"vote_count":780,"video":false,"poster_path":"\/7GsM4mtM0worCtIVeiQt28HieeN.jpg","id":515001,"adult":false,"backdrop_path":"\/agoBZfL1q5G79SD0npArSlJn8BH.jpg","original_language":"en","original_title":"Jojo Rabbit","genre_ids":[35,18,10752],"title":"Jojo Rabbit","vote_average":8.1,"overview":"A World War II satire that follows a lonely German boy whose world view is turned upside down when he discovers his single mother is hiding a young Jewish girl in their attic. Aided only by his idiotic imaginary friend, Adolf Hitler, Jojo must confront his blind nationalism.","release_date":"2019-10-18"},{"popularity":81.632,"vote_count":698,"video":false,"poster_path":"\/mSmiB8XjUnR1GSIljuCPGsk0cwX.jpg","id":331482,"adult":false,"backdrop_path":"\/3uTxPIdVEXxHpsHOHdJC24QebBV.jpg","original_language":"en","original_title":"Little Women","genre_ids":[18,10749],"title":"Little Women","vote_average":8,"overview":"Four sisters come of age in America in the aftermath of the Civil War.","release_date":"2019-12-25"},{"popularity":83.596,"vote_count":85,"video":false,"poster_path":"\/3Nt3v1uzUgfSuVARD1AnI9g9Zl9.jpg","id":448119,"adult":false,"backdrop_path":"\/lG802rseTZcN9mtLsQPVfApEVzM.jpg","original_language":"en","original_title":"Dolittle","genre_ids":[28,12,35,14,10751],"title":"Dolittle","vote_average":6.6,"overview":"After losing his wife seven years earlier, the eccentric Dr. John Dolittle, famed doctor and veterinarian of Queen Victoria’s England, hermits himself away behind the high walls of Dolittle Manor with only his menagerie of exotic animals for company. But when the young queen falls gravely ill, a reluctant Dolittle is forced to set sail on an epic adventure to a mythical island in search of a cure, regaining his wit and courage as he crosses old adversaries and discovers wondrous creatures.","release_date":"2020-01-01"},{"popularity":68.795,"vote_count":2,"video":false,"poster_path":"\/w8NECPBCViY0h7945WcmNUIROEm.jpg","id":442065,"adult":false,"backdrop_path":"\/kGswNLCAB4drembvu16tx38dtDd.jpg","original_language":"en","original_title":"The Last Full Measure","genre_ids":[18],"title":"The Last Full Measure","vote_average":9.5,"overview":"THE LAST FULL MEASURE tells the true story of Vietnam War hero William H. Pitsenbarger , a U.S. Air Force Pararescuemen (also known as a PJ) medic who personally saved over sixty men. During a rescue mission on April 11, 1966, he was offered the chance to escape on the last helicopter out of a combat zone heavily under fire, but he stayed behind to save and defend the lives of his fellow soldiers of the U.S. Army's 1st Infantry Division, before making the ultimate sacrifice in the bloodiest battle of the war.","release_date":"2020-01-23"},{"popularity":62.117,"vote_count":57,"video":false,"poster_path":"\/61Ng0t8iMnbWFmARcyBrkaErg4G.jpg","id":554241,"adult":false,"backdrop_path":"\/gqOjAU5ucgrXFszSVq6TynsKHZG.jpg","original_language":"en","original_title":"Playing with Fire","genre_ids":[35,10751],"title":"Playing with Fire","vote_average":6.9,"overview":"A crew of rugged firefighters meet their match when attempting to rescue three rambunctious kids.","release_date":"2019-11-08"},{"popularity":53.23,"vote_count":7,"video":false,"poster_path":"\/5t5uHwmt3UQ8MbvnqE7aiL7RMW4.jpg","id":492611,"adult":false,"backdrop_path":"\/yv0NQmX1TWsXmIpxgpDQtlMRixp.jpg","original_language":"en","original_title":"The Turning","genre_ids":[27,53],"title":"The Turning","vote_average":6.6,"overview":"A young governess is hired by a man who has become responsible for his young nephew and niece after the deaths of their parents. A modern take on Henry James' novella \"The Turn of the Screw\".","release_date":"2020-01-23"},{"popularity":50.319,"vote_count":142,"video":false,"poster_path":"\/jlHL2BH176JApGiLnNQLQgdjMFd.jpg","id":443791,"adult":false,"backdrop_path":"\/fYPiQewg7ogbzro2XcCTACSB2KC.jpg","original_language":"en","original_title":"Underwater","genre_ids":[27,878,53],"title":"Underwater","vote_average":6,"overview":"After an earthquake destroys their underwater station, six researchers must navigate two miles along the dangerous, unknown depths of the ocean floor to make it to safety in a race against time.","release_date":"2020-01-08"},{"popularity":48.443,"vote_count":127,"video":false,"poster_path":"\/30YacPAcxpNemhhwX0PVUl9pVA3.jpg","id":431693,"adult":false,"backdrop_path":"\/qlYxtqVfu2LOdvYMMDPCSGX0Oz0.jpg","original_language":"en","original_title":"Spies in Disguise","genre_ids":[28,12,16,35],"title":"Spies in Disguise","vote_average":7.3,"overview":"When the world's best spy is turned into a pigeon, he must rely on his nerdy tech officer to save the world.","release_date":"2019-12-24"},{"popularity":40.166,"vote_count":165,"video":false,"poster_path":"\/gbPfvwBqbiHpQkYZQvVwB6MVauV.jpg","id":525661,"adult":false,"backdrop_path":"\/nj84vpuUWdbmYktBzjiWn5Ny1ZF.jpg","original_language":"en","original_title":"Bombshell","genre_ids":[18],"title":"Bombshell","vote_average":6.9,"overview":"Bombshell is a revealing look inside the most powerful and controversial media empire of all time; and the explosive story of the women who brought down the infamous man who created it.","release_date":"2019-12-13"},{"popularity":38.342,"vote_count":63,"video":false,"poster_path":"\/n1GZYASUskyByP4OfpuHzXFbjY4.jpg","id":522627,"adult":false,"backdrop_path":"\/9Qfawg9WT3cSbBXQgDRuWbYS9lj.jpg","original_language":"en","original_title":"The Gentlemen","genre_ids":[28,35,80],"title":"The Gentlemen","vote_average":7.5,"overview":"American expat Mickey Pearson has built a highly profitable marijuana empire in London. When word gets out that he’s looking to cash out of the business forever it triggers plots, schemes, bribery and blackmail in an attempt to steal his domain out from under him.","release_date":"2020-01-01"},{"popularity":35.738,"vote_count":16639,"video":false,"poster_path":"\/yE5d3BUhE8hCnkMUJOo1QDoOGNz.jpg","id":13,"adult":false,"backdrop_path":"\/wMgbnUVS9wbRGAdki8fqxKU1O0N.jpg","original_language":"en","original_title":"Forrest Gump","genre_ids":[35,18,10749],"title":"Forrest Gump","vote_average":8.4,"overview":"A man with a low IQ has accomplished great things in his life and been present during significant historic events—in each case, far exceeding what anyone imagined he could do. But despite all he has achieved, his one true love eludes him.","release_date":"1994-07-06"},{"popularity":35.486,"vote_count":0,"video":false,"poster_path":"\/nx0IFupVrlrgKncaza2aUascED6.jpg","id":495764,"adult":false,"backdrop_path":"\/jiqD14fg7UTZOT6qgvzTmfRYpWI.jpg","original_language":"en","original_title":"Birds of Prey (and the Fantabulous Emancipation of One Harley Quinn)","genre_ids":[28,12,80],"title":"Birds of Prey (and the Fantabulous Emancipation of One Harley Quinn)","vote_average":0,"overview":"After splitting with the Joker, Harley Quinn joins superheroes Black Canary, Huntress and Renee Montoya to save a young girl from an evil crime lord.","release_date":"2020-02-05"},{"popularity":34.102,"vote_count":31,"video":false,"poster_path":"\/ifn7yLH7W69MdrEEkNzCyO8rTmL.jpg","id":526019,"adult":false,"backdrop_path":"\/wMv7GL12s0bJmfv3ckdglOCQ8B3.jpg","original_language":"en","original_title":"Like a Boss","genre_ids":[35],"title":"Like a Boss","vote_average":6.8,"overview":"Two female friends with very different ideals decide to start a beauty company together. One is more practical, while the other wants to earn her fortune and live a lavish lifestyle.","release_date":"2020-01-09"},{"popularity":32.652,"vote_count":234,"video":false,"poster_path":"\/3NTEMlG5mQdIAlKDl3AJG0rX29Z.jpg","id":531428,"adult":false,"backdrop_path":"\/joXf2ToDZjVMBxWrzijQ3V9cC8p.jpg","original_language":"fr","original_title":"Portrait de la jeune fille en feu","genre_ids":[18,10749],"title":"Portrait of a Lady on Fire","vote_average":8.4,"overview":"On an isolated island in Brittany at the end of the eighteenth century, a female painter is obliged to paint a wedding portrait of a young woman.","release_date":"2019-06-17"},{"popularity":32.447,"vote_count":0,"video":false,"poster_path":"\/s8qRIwA0zDPbnRekeU0rDwWE7q7.jpg","id":454626,"adult":false,"backdrop_path":"\/stmYfCUGd8Iy6kAMBr6AmWqx8Bq.jpg","original_language":"en","original_title":"Sonic the Hedgehog","genre_ids":[28,12,35,14,878,10751],"title":"Sonic the Hedgehog","vote_average":0,"overview":"Based on the global blockbuster videogame franchise from Sega, Sonic the Hedgehog tells the story of the world’s speediest hedgehog as he embraces his new home on Earth. In this live-action adventure comedy, Sonic and his new best friend team up to defend the planet from the evil genius Dr. Robotnik and his plans for world domination.","release_date":"2020-02-12"},{"popularity":36.026,"vote_count":643,"video":false,"poster_path":"\/rXv4tqt0UZsqyjCD3Kxjcs6OnHT.jpg","id":519010,"adult":false,"backdrop_path":"\/yCwcSCzcVKdI5Y9tA2T1s5Fr7jY.jpg","original_language":"es","original_title":"Dolor y gloria","genre_ids":[18],"title":"Pain and Glory","vote_average":7.6,"overview":"Salvador Mallo, a filmmaker in the twilight of his career, remembers his life: his mother, his lovers, the actors he worked with. The sixties in a small village in Valencia, the eighties in Madrid, the present, when he feels an immeasurable emptiness, facing his mortality, the incapability of continuing filming, the impossibility of separating creation from his own life. The need of narrating his past can be his salvation.","release_date":"2019-03-22"},{"popularity":37.544,"vote_count":37,"video":false,"poster_path":"\/hJ6YEbrjFvToa5c7IiUqILoB6Je.jpg","id":552178,"adult":false,"backdrop_path":"\/zdM51clBdMMfSiWXXPvPDcUlkpS.jpg","original_language":"en","original_title":"Dark Waters","genre_ids":[18],"title":"Dark Waters","vote_average":7.4,"overview":"A tenacious attorney uncovers a dark secret that connects a growing number of unexplained deaths due to one of the world's largest corporations. In the process, he risks everything — his future, his family, and his own life — to expose the truth.","release_date":"2019-11-22"}],"page":1,"total_results":191,"dates":{"maximum":"2020-02-16","minimum":"2020-02-01"},"total_pages":10}